{
  "project_info": {
    "project_number": "564183694280",
    "project_id": "realtimechatapprn",
    "storage_bucket": "realtimechatapprn.appspot.com"
  },
  "client": [
    {
      "client_info": {
        "mobilesdk_app_id": "1:564183694280:android:152f97d8feaff6006a5efd",
        "android_client_info": {
          "package_name": "com.firebasernchatrt"
        }
      },
      "oauth_client": [
        {
          "client_id": "564183694280-vneivv2ebg3a7ba076m3p6h0mbf5jfcu.apps.googleusercontent.com",
          "client_type": 1,
          "android_info": {
            "package_name": "com.firebasernchatrt",
            "certificate_hash": "5e8f16062ea3cd2c4a0d547876baa6f38cabf625"
          }
        },
        {
          "client_id": "564183694280-5vk8ju7pg5ijaork64nl3p8pvsn26o58.apps.googleusercontent.com",
          "client_type": 3
        }
      ],
      "api_key": [
        {
          "current_key": "AIzaSyDSO7K51yHNPuBFUSvOPjhe1gpIusKWm64"
        }
      ],
      "services": {
        "appinvite_service": {
          "other_platform_oauth_client": [
            {
              "client_id": "564183694280-5vk8ju7pg5ijaork64nl3p8pvsn26o58.apps.googleusercontent.com",
              "client_type": 3
            }
          ]
        }
      }
    }
  ],
  "configuration_version": "1"
}